error: predefined templates must always expand to items
 --> ui/badcontext.rs:5:23
  |
5 |     FieldNames expect expr =
  |                       ^^^^

error: macro expansion ignores token `0` and any following
  --> ui/badcontext.rs:17:27
   |
9  | #[derive(Deftly)]
   |          ------ caused by the macro expansion here
...
17 |     ${for fields { 1 + }} 0
   |                           ^
   |
   = note: the usage of `::derive_deftly::derive_deftly_engine!` is likely invalid in item context

error: must be within a field (so, in a repeat group)
  --> ui/badcontext.rs:22:15
   |
22 |     ${ignore $fname}
   |               ^^^^^

error: cannot find macro `derive_deftly_template_FieldNames` in this scope
  --> ui/badcontext.rs:10:17
   |
10 | #[derive_deftly(FieldNames)]
   |                 ^^^^^^^^^^
