error: this file contains an unclosed delimiter
  --> ui/badmeta.rs:3:10
   |
3  |   #[derive(Deftly)]
   |            ^^^^^^ unclosed delimiter
...
12 | / derive_deftly_adhoc! {
13 | |     DataType:
14 | |
15 | |     const K: () = ${tmeta(wrong) as expr}
16 | | }
   | |_- in this macro invocation
   |
   = note: this error originates in the macro `::derive_deftly::derive_deftly_engine` which comes from the expansion of the macro `derive_deftly_adhoc` (in Nightly builds, run with -Z macro-backtrace for more info)

error: cannot parse string into token stream
  --> ui/badmeta.rs:3:10
   |
3  |   #[derive(Deftly)]
   |            ^^^^^^
...
12 | / derive_deftly_adhoc! {
13 | |     DataType:
14 | |
15 | |     const K: () = ${tmeta(wrong) as expr}
16 | | }
   | |_- in this macro invocation
   |
   = note: this error originates in the macro `::derive_deftly::derive_deftly_engine` which comes from the expansion of the macro `derive_deftly_adhoc` (in Nightly builds, run with -Z macro-backtrace for more info)

error: constructed identifier "Bad." is invalid
  --> ui/badmeta.rs:26:14
   |
26 |     struct ${paste Bad ${tmeta(dot) as str}};
   |              ^^^^^

error: probably-invalid input to identifier pasting
  --> ui/badmeta.rs:6:16
   |
6  |   #[deftly(dot = ".")]
   |                  ^^^
...
23 | / derive_deftly_adhoc! {
24 | |     DataType:
25 | |
26 | |     struct ${paste Bad ${tmeta(dot) as str}};
...  |
31 | |     struct ${paste Bad ${tmeta(several_inner(several)) as str}};
32 | | }
   | |_- in this macro invocation
   |
   = note: this error originates in the macro `derive_deftly_driver_DataType` which comes from the expansion of the macro `derive_deftly_adhoc` (in Nightly builds, run with -Z macro-backtrace for more info)

error: expected a list with sub-attributes, found a simple value
  --> ui/badmeta.rs:6:10
   |
6  |   #[deftly(dot = ".")]
   |            ^^^
...
23 | / derive_deftly_adhoc! {
24 | |     DataType:
25 | |
26 | |     struct ${paste Bad ${tmeta(dot) as str}};
...  |
31 | |     struct ${paste Bad ${tmeta(several_inner(several)) as str}};
32 | | }
   | |_- in this macro invocation
   |
   = note: this error originates in the macro `derive_deftly_driver_DataType` which comes from the expansion of the macro `derive_deftly_adhoc` (in Nightly builds, run with -Z macro-backtrace for more info)

error: attribute value expanded, but no suitable value in data structure definition (in this data structure)
  --> ui/badmeta.rs:4:1
   |
4  | / #[derive_deftly_adhoc]
5  | | #[deftly(wrong = "{")]
6  | | #[deftly(dot = ".")]
7  | | #[deftly(several = "first")]
8  | | #[deftly(several = "second")]
9  | | #[deftly(several_inner(several = "first", several = "second"))]
10 | | struct DataType {}
   | |_________________^
...
23 | / derive_deftly_adhoc! {
24 | |     DataType:
25 | |
26 | |     struct ${paste Bad ${tmeta(dot) as str}};
...  |
31 | |     struct ${paste Bad ${tmeta(several_inner(several)) as str}};
32 | | }
   | |_- in this macro invocation
   |
   = note: this error originates in the macro `derive_deftly_driver_DataType` which comes from the expansion of the macro `derive_deftly_adhoc` (in Nightly builds, run with -Z macro-backtrace for more info)

error: attribute value expanded, but no suitable value in data structure definition (expansion)
  --> ui/badmeta.rs:28:26
   |
28 |     struct ${paste Bad ${tmeta(dot(has_equals)) as str}};
   |                          ^^^^^^^^^^^^^^^^^^^^

error: tried to expand just attribute value, but it was specified multiple times (first occurrence)
  --> ui/badmeta.rs:7:10
   |
7  |   #[deftly(several = "first")]
   |            ^^^^^^^
...
23 | / derive_deftly_adhoc! {
24 | |     DataType:
25 | |
26 | |     struct ${paste Bad ${tmeta(dot) as str}};
...  |
31 | |     struct ${paste Bad ${tmeta(several_inner(several)) as str}};
32 | | }
   | |_- in this macro invocation
   |
   = note: this error originates in the macro `derive_deftly_driver_DataType` which comes from the expansion of the macro `derive_deftly_adhoc` (in Nightly builds, run with -Z macro-backtrace for more info)

error: tried to expand just attribute value, but it was specified multiple times (second occurrence)
  --> ui/badmeta.rs:8:10
   |
8  |   #[deftly(several = "second")]
   |            ^^^^^^^
...
23 | / derive_deftly_adhoc! {
24 | |     DataType:
25 | |
26 | |     struct ${paste Bad ${tmeta(dot) as str}};
...  |
31 | |     struct ${paste Bad ${tmeta(several_inner(several)) as str}};
32 | | }
   | |_- in this macro invocation
   |
   = note: this error originates in the macro `derive_deftly_driver_DataType` which comes from the expansion of the macro `derive_deftly_adhoc` (in Nightly builds, run with -Z macro-backtrace for more info)

error: tried to expand just attribute value, but it was specified multiple times (expansion)
  --> ui/badmeta.rs:30:26
   |
30 |     struct ${paste Bad ${tmeta(several) as str}};
   |                          ^^^^^^^^^^^^^

error: tried to expand just attribute value, but it was specified multiple times (first occurrence)
  --> ui/badmeta.rs:9:24
   |
9  |   #[deftly(several_inner(several = "first", several = "second"))]
   |                          ^^^^^^^
...
23 | / derive_deftly_adhoc! {
24 | |     DataType:
25 | |
26 | |     struct ${paste Bad ${tmeta(dot) as str}};
...  |
31 | |     struct ${paste Bad ${tmeta(several_inner(several)) as str}};
32 | | }
   | |_- in this macro invocation
   |
   = note: this error originates in the macro `derive_deftly_driver_DataType` which comes from the expansion of the macro `derive_deftly_adhoc` (in Nightly builds, run with -Z macro-backtrace for more info)

error: tried to expand just attribute value, but it was specified multiple times (second occurrence)
  --> ui/badmeta.rs:9:43
   |
9  |   #[deftly(several_inner(several = "first", several = "second"))]
   |                                             ^^^^^^^
...
23 | / derive_deftly_adhoc! {
24 | |     DataType:
25 | |
26 | |     struct ${paste Bad ${tmeta(dot) as str}};
...  |
31 | |     struct ${paste Bad ${tmeta(several_inner(several)) as str}};
32 | | }
   | |_- in this macro invocation
   |
   = note: this error originates in the macro `derive_deftly_driver_DataType` which comes from the expansion of the macro `derive_deftly_adhoc` (in Nightly builds, run with -Z macro-backtrace for more info)

error: tried to expand just attribute value, but it was specified multiple times (expansion)
  --> ui/badmeta.rs:31:26
   |
31 |     struct ${paste Bad ${tmeta(several_inner(several)) as str}};
   |                          ^^^^^^^^^^^^^^^^^^^^^^^^^^^

error: attribute value expanded, but no value in data structure definition (in this data structure)
  --> ui/badmeta.rs:4:1
   |
4  | / #[derive_deftly_adhoc]
5  | | #[deftly(wrong = "{")]
6  | | #[deftly(dot = ".")]
7  | | #[deftly(several = "first")]
8  | | #[deftly(several = "second")]
9  | | #[deftly(several_inner(several = "first", several = "second"))]
10 | | struct DataType {}
   | |_________________^
...
36 | / derive_deftly_adhoc! {
37 | |     DataType:
38 | |
39 | |     // fails because `barelit("42")` is not helpful
40 | |     struct ${paste Bad ${tmeta(barelit(is_value)) as str}};
41 | | }
   | |_- in this macro invocation
   |
   = note: this error originates in the macro `derive_deftly_driver_DataType` which comes from the expansion of the macro `derive_deftly_adhoc` (in Nightly builds, run with -Z macro-backtrace for more info)

error: attribute value expanded, but no value in data structure definition (expansion)
  --> ui/badmeta.rs:40:26
   |
40 |     struct ${paste Bad ${tmeta(barelit(is_value)) as str}};
   |                          ^^^^^^^^^^^^^^^^^^^^^^

error: expected a leaf node, found a list with sub-attributes
  --> ui/badmeta.rs:9:10
   |
9  |   #[deftly(several_inner(several = "first", several = "second"))]
   |            ^^^^^^^^^^^^^
...
43 | / derive_deftly_adhoc! {
44 | |     DataType:
45 | |
46 | |     // fails because `several_inner(...)` is not helpful
47 | |     struct ${paste Bad ${tmeta(several_inner) as str}};
48 | | }
   | |_- in this macro invocation
   |
   = note: this error originates in the macro `derive_deftly_driver_DataType` which comes from the expansion of the macro `derive_deftly_adhoc` (in Nightly builds, run with -Z macro-backtrace for more info)

error: attribute value expanded, but no suitable value in data structure definition (in this data structure)
  --> ui/badmeta.rs:4:1
   |
4  | / #[derive_deftly_adhoc]
5  | | #[deftly(wrong = "{")]
6  | | #[deftly(dot = ".")]
7  | | #[deftly(several = "first")]
8  | | #[deftly(several = "second")]
9  | | #[deftly(several_inner(several = "first", several = "second"))]
10 | | struct DataType {}
   | |_________________^
...
43 | / derive_deftly_adhoc! {
44 | |     DataType:
45 | |
46 | |     // fails because `several_inner(...)` is not helpful
47 | |     struct ${paste Bad ${tmeta(several_inner) as str}};
48 | | }
   | |_- in this macro invocation
   |
   = note: this error originates in the macro `derive_deftly_driver_DataType` which comes from the expansion of the macro `derive_deftly_adhoc` (in Nightly builds, run with -Z macro-backtrace for more info)

error: attribute value expanded, but no suitable value in data structure definition (expansion)
  --> ui/badmeta.rs:47:26
   |
47 |     struct ${paste Bad ${tmeta(several_inner) as str}};
   |                          ^^^^^^^^^^^^^^^^^^^

error: expected identifier
  --> ui/badmeta.rs:52:10
   |
52 | #[deftly("forbidden")]
   |          ^^^^^^^^^^^

error: expected identifier
  --> ui/badmeta.rs:52:10
   |
52 | #[deftly("forbidden")]
   |          ^^^^^^^^^^^
53 | struct TopLevelMetaLitForbidden;
54 | derive_deftly_adhoc! { TopLevelMetaLitForbidden: }
   | -------------------------------------------------- in this macro invocation
   |
   = note: this error originates in the macro `derive_deftly_driver_TopLevelMetaLitForbidden` which comes from the expansion of the macro `derive_deftly_adhoc` (in Nightly builds, run with -Z macro-backtrace for more info)

error: expected literal
  --> ui/badmeta.rs:58:18
   |
58 | #[deftly(value = wrong)]
   |                  ^^^^^

error: expected literal
  --> ui/badmeta.rs:58:18
   |
58 | #[deftly(value = wrong)]
   |                  ^^^^^
59 | struct MetaValueMustBeLit;
60 | derive_deftly_adhoc! { MetaValueMustBeLit: }
   | -------------------------------------------- in this macro invocation
   |
   = note: this error originates in the macro `derive_deftly_driver_MetaValueMustBeLit` which comes from the expansion of the macro `derive_deftly_adhoc` (in Nightly builds, run with -Z macro-backtrace for more info)

error: expected identifier
  --> ui/badmeta.rs:64:18
   |
64 | #[deftly(barelit("42"))]
   |                  ^^^^

error: expected identifier
  --> ui/badmeta.rs:69:16
   |
69 | #[deftly(multi("1", "2"))]
   |                ^^^

error: expected identifier
  --> ui/badmeta.rs:64:18
   |
64 |   #[deftly(barelit("42"))]
   |                    ^^^^
...
72 | / derive_deftly_adhoc! {
73 | |     WithBareLit:
74 | |     struct ${paste Bad ${tmeta(barelit) as str}};
75 | | }
   | |_- in this macro invocation
   |
   = note: this error originates in the macro `derive_deftly_driver_WithBareLit` which comes from the expansion of the macro `derive_deftly_adhoc` (in Nightly builds, run with -Z macro-backtrace for more info)

error: expected identifier
  --> ui/badmeta.rs:69:16
   |
69 |   #[deftly(multi("1", "2"))]
   |                  ^^^
...
77 | / derive_deftly_adhoc! {
78 | |     WithBareLitMulti:
79 | |     struct ${paste Bad ${tmeta(multi) as str}};
80 | | }
   | |_- in this macro invocation
   |
   = note: this error originates in the macro `derive_deftly_driver_WithBareLitMulti` which comes from the expansion of the macro `derive_deftly_adhoc` (in Nightly builds, run with -Z macro-backtrace for more info)

error: expected path segment after `::`
  --> ui/badmeta.rs:84:49
   |
84 |     struct ${paste Bad ${tmeta(std::cell::Cell::<String>::ne)w as str}};
   |                                                 ^

error: expected path segment after `::`
  --> ui/badmeta.rs:90:27
   |
90 | #[deftly(std::cell::Cell::<String>::new)]
   |                           ^

error: expected path segment after `::`
  --> ui/badmeta.rs:90:27
   |
90 |   #[deftly(std::cell::Cell::<String>::new)]
   |                             ^
...
93 | / derive_deftly_adhoc! {
94 | |     WithFunkyPath:
95 | | }
   | |_- in this macro invocation
   |
   = note: this error originates in the macro `derive_deftly_driver_WithFunkyPath` which comes from the expansion of the macro `derive_deftly_adhoc` (in Nightly builds, run with -Z macro-backtrace for more info)

error: missing parameters to expansion keyword (NB: argument must be within { })
   --> ui/badmeta.rs:104:6
    |
104 |     $tmeta(something)
    |      ^^^^^

error: missing parameters to condition
   --> ui/badmeta.rs:105:10
    |
105 |     ${if tmeta}
    |          ^^^^^

error: unexpected arguments to expansion keyword
   --> ui/badmeta.rs:107:24
    |
107 |     ${tmeta(something) unknown_option}
    |                        ^^^^^^^^^^^^^^

error: expected curly braces
   --> ui/badmeta.rs:108:27
    |
108 |     ${if tmeta(something) unknown_option {}}
    |                           ^^^^^^^^^^^^^^

error: missing `as ...` in meta expansion
   --> ui/badmeta.rs:114:7
    |
114 |     ${tmeta(dot)} // forgot `.. as`, so `"."` not even parsed
    |       ^^^^^^^^^

warning: unused macro definition: `derive_deftly_template_WrongRequestSyntax`
   --> ui/badmeta.rs:102:5
    |
102 |     WrongRequestSyntax =
    |     ^^^^^^^^^^^^^^^^^^
    |
    = note: `#[warn(unused_macros)]` on by default
