error: multiple nontrivial entries in ${paste ...}
  --> ui/badpaste.rs:15:18
   |
15 |         ${paste $ttype _ $ftype}
   |                  ^^^^^

error: multiple nontrivial entries in ${paste ...}
  --> ui/badpaste.rs:15:27
   |
15 |         ${paste $ttype _ $ftype}
   |                           ^^^^^

error: not allowed in within ${paste ...} (or case_changing)
  --> ui/badpaste.rs:22:29
   |
22 |     struct ${paste $tname _ 42};
   |                             ^^

error: multiple nontrivial entries in ${paste ...}
  --> ui/badpaste.rs:28:21
   |
28 |     struct ${paste $ttype ${tmeta(something) as ty}};
   |                     ^^^^^

error: multiple nontrivial entries in ${paste ...}
  --> ui/badpaste.rs:28:29
   |
28 |     struct ${paste $ttype ${tmeta(something) as ty}};
   |                             ^^^^^^^^^^^^^^^

error: expected one of `!` or `::`, found `Broken`
  --> ui/badpaste.rs:35:23
   |
35 |     ${paste tdefkwed} Broken { }
   |                       ^^^^^^ expected one of `!` or `::`
