error: meta attribute provided with value, and (conditionally) recognised with value; but in these particular circumstances only used as a boolean
  --> ui/unkmeta2.rs:28:14
   |
28 |     #[deftly(value = "ignored")] // ERROR, tested only as bool by ShortCircuit
   |              ^^^^^

error: meta attribute provided, and (conditionally) recognised; but not used in these particular circumstances
  --> ui/unkmeta2.rs:37:14
   |
37 |     #[deftly(short_circuit)] // ERROR, not reached in the all()
   |              ^^^^^^^^^^^^^
